<?xml version="1.0" standalone="no"?>
<!DOCTYPE svg PUBLIC "-//W3C//DTD SVG 20010904//EN"
 "http://www.w3.org/TR/2001/REC-SVG-20010904/DTD/svg10.dtd">
<svg version="1.0" xmlns="http://www.w3.org/2000/svg"
 width="512.000000pt" height="512.000000pt" viewBox="0 0 512.000000 512.000000"
 preserveAspectRatio="xMidYMid meet">
<metadata>
Created by potrace 1.11, written by Peter Selinger 2001-2013
</metadata>
<g transform="translate(0.000000,512.000000) scale(0.100000,-0.100000)"
fill="#000000" stroke="none">
<path d="M2360 4683 c-895 -91 -1637 -709 -1859 -1544 -46 -172 -62 -286 -68
-485 -9 -277 25 -529 103 -762 293 -878 1102 -1462 2024 -1462 575 0 1099 217
1506 624 412 413 624 930 624 1526 0 406 -94 755 -290 1080 -262 434 -671 759
-1158 920 -152 50 -300 82 -457 100 -84 9 -346 11 -425 3z m247 -354 c53 -6
137 -21 187 -34 103 -26 256 -84 256 -96 0 -5 -21 -9 -47 -9 -27 0 -91 -7
-143 -15 -408 -62 -542 -261 -408 -607 16 -43 33 -78 36 -78 4 0 23 5 42 10
19 6 227 65 462 130 535 150 806 229 976 285 73 24 132 39 130 35 -7 -19 -181
-231 -259 -316 -378 -408 -739 -639 -1079 -689 -52 -8 -216 -24 -365 -35 -308
-24 -386 -33 -494 -61 -244 -62 -381 -221 -381 -444 0 -133 50 -245 156 -351
174 -175 455 -230 667 -130 72 35 149 118 174 188 27 78 24 238 -6 343 -26 92
-82 216 -135 299 -20 32 -36 59 -34 61 2 1 104 7 227 13 l224 11 166 -138
c307 -255 517 -413 1033 -781 120 -84 216 -156 214 -158 -7 -6 -293 28 -409
49 -302 54 -522 133 -764 274 -54 32 -101 60 -105 62 -4 2 4 -27 19 -64 138
-361 235 -661 302 -934 42 -169 85 -402 79 -421 -2 -6 -42 43 -88 108 -115
164 -182 244 -291 349 -211 203 -437 350 -889 575 -290 144 -411 234 -530 392
-68 90 -151 253 -175 343 -72 276 28 510 290 681 89 58 214 119 302 148 29 10
55 22 58 27 11 17 -49 110 -98 155 -92 82 -244 141 -430 164 -45 5 -178 10
-297 10 l-215 0 115 61 c160 84 251 141 425 263 83 58 197 130 255 160 274
142 559 197 847 165z"/>
</g>
</svg>
